{
  "db": "PostgreSQL",
  "32babfafae6b4c70f4ad72df6e7269256982fcd60ebe42e7690a9e2b41d7aabd": {
    "describe": {
      "columns": [
        {
          "name": "id",
          "ordinal": 0,
          "type_info": "Int4"
        },
        {
          "name": "name",
          "ordinal": 1,
          "type_info": "Varchar"
        },
        {
          "name": "email",
          "ordinal": 2,
          "type_info": "Text"
        }
      ],
      "nullable": [
        false,
        false,
        false
      ],
      "parameters": {
        "Left": [
          "Text"
        ]
      }
    },
    "query": "SELECT id, name, email FROM users WHERE email = $1"
  },
  "685ab90e81368505ee9f95e585e3b6493fd8b5a9fec3b6a368a296e6cba9aa18": {
    "describe": {
      "columns": [
        {
          "name": "id",
          "ordinal": 0,
          "type_info": "Int4"
        }
      ],
      "nullable": [
        false
      ],
      "parameters": {
        "Left": [
          "Varchar",
          "Text",
          "Text"
        ]
      }
    },
    "query": "INSERT INTO USERS(name,email,password) VALUES ($1, $2, $3) ON CONFLICT(email) DO UPDATE SET name = $1 RETURNING id"
  },
  "8395b6562226e1c775d578ebe20e7dc2c26854c89a7f6fc3a63fe8490a7a54b2": {
    "describe": {
      "columns": [
        {
          "name": "id",
          "ordinal": 0,
          "type_info": "Int4"
        },
        {
          "name": "name",
          "ordinal": 1,
          "type_info": "Varchar"
        },
        {
          "name": "email",
          "ordinal": 2,
          "type_info": "Text"
        }
      ],
      "nullable": [
        false,
        false,
        false
      ],
      "parameters": {
        "Left": [
          "Int4"
        ]
      }
    },
    "query": "SELECT id, name, email FROM users WHERE id = $1"
  },
  "f3800645b192c76e76bed1c6b38a294b6a94cf11a1d325ecda9ca9309ecd440c": {
    "describe": {
      "columns": [
        {
          "name": "id",
          "ordinal": 0,
          "type_info": "Int4"
        },
        {
          "name": "title",
          "ordinal": 1,
          "type_info": "Varchar"
        },
        {
          "name": "description",
          "ordinal": 2,
          "type_info": "Text"
        }
      ],
      "nullable": [
        false,
        false,
        false
      ],
      "parameters": {
        "Left": [
          "Int4"
        ]
      }
    },
    "query": "\n            SELECT r.id, r.title, r.description FROM roles r\n            LEFT JOIN user_roles ur ON r.id = ur.role_id\n            WHERE ur.user_id = $1"
  }
}